module gitlab.oit.duke.edu/devil-ops/suitcasectl

go 1.22

require (
	github.com/ProtonMail/go-crypto v1.0.0
	github.com/ProtonMail/gopenpgp/v2 v2.7.4
	github.com/charmbracelet/huh v0.2.3
	github.com/charmbracelet/lipgloss v0.10.0
	github.com/charmbracelet/log v0.3.1
	github.com/drewstinnett/gout/v2 v2.1.2
	github.com/dsnet/compress v0.0.2-0.20210315054119-f66993602bf5
	github.com/dustin/go-humanize v1.0.1
	github.com/go-git/go-git/v5 v5.11.0
	github.com/google/uuid v1.6.0
	github.com/gosimple/slug v1.13.1
	github.com/invopop/jsonschema v0.12.0
	github.com/karrick/godirwalk v1.17.0
	github.com/klauspost/compress v1.17.9
	github.com/klauspost/pgzip v1.2.6
	github.com/lucasb-eyer/go-colorful v1.2.0
	github.com/mholt/archiver/v4 v4.0.0-alpha.8.0.20230831060951-e2261a1bb41f
	github.com/mitchellh/go-homedir v1.1.0
	github.com/muesli/mango-cobra v1.2.0
	github.com/muesli/roff v0.1.0
	github.com/oklog/ulid/v2 v2.1.0
	github.com/rclone/rclone v1.68.2
	github.com/samber/slog-multi v1.0.2
	github.com/sethvargo/go-retry v0.2.4
	github.com/sourcegraph/conc v0.3.0
	github.com/spf13/cobra v1.8.1
	github.com/spf13/pflag v1.0.5
	github.com/spf13/viper v1.18.2
	github.com/stretchr/testify v1.9.0
	github.com/vjorlikowski/yaml v0.1.0
	github.com/xlab/treeprint v1.2.0
	go.etcd.io/bbolt v1.3.10
	golang.org/x/tools v0.23.0
	gopkg.in/yaml.v3 v3.0.1
	moul.io/http2curl v1.0.0
)

require (
	cloud.google.com/go/auth v0.7.0 // indirect
	cloud.google.com/go/auth/oauth2adapt v0.2.2 // indirect
	cloud.google.com/go/compute/metadata v0.4.0 // indirect
	dario.cat/mergo v1.0.0 // indirect
	github.com/Azure/azure-sdk-for-go/sdk/azcore v1.13.0 // indirect
	github.com/Azure/azure-sdk-for-go/sdk/azidentity v1.7.0 // indirect
	github.com/Azure/azure-sdk-for-go/sdk/internal v1.10.0 // indirect
	github.com/Azure/azure-sdk-for-go/sdk/storage/azblob v1.3.2 // indirect
	github.com/Azure/azure-sdk-for-go/sdk/storage/azfile v1.2.2 // indirect
	github.com/Azure/go-ntlmssp v0.0.0-20221128193559-754e69321358 // indirect
	github.com/AzureAD/microsoft-authentication-library-for-go v1.2.2 // indirect
	github.com/Files-com/files-sdk-go/v3 v3.2.34 // indirect
	github.com/Max-Sum/base32768 v0.0.0-20230304063302-18e6ce5945fd // indirect
	github.com/Microsoft/go-winio v0.6.1 // indirect
	github.com/ProtonMail/bcrypt v0.0.0-20211005172633-e235017c1baf // indirect
	github.com/ProtonMail/gluon v0.17.1-0.20230724134000-308be39be96e // indirect
	github.com/ProtonMail/go-mime v0.0.0-20230322103455-7d82a3887f2f // indirect
	github.com/ProtonMail/go-srp v0.0.7 // indirect
	github.com/PuerkitoBio/goquery v1.8.1 // indirect
	github.com/aalpar/deheap v0.0.0-20210914013432-0cc84d79dec3 // indirect
	github.com/abbot/go-http-auth v0.4.0 // indirect
	github.com/alecthomas/chroma v0.10.0 // indirect
	github.com/andybalholm/brotli v1.0.6 // indirect
	github.com/andybalholm/cascadia v1.3.2 // indirect
	github.com/appscode/go-querystring v0.0.0-20170504095604-0126cfb3f1dc // indirect
	github.com/atotto/clipboard v0.1.4 // indirect
	github.com/aws/aws-sdk-go-v2 v1.30.3 // indirect
	github.com/aws/aws-sdk-go-v2/aws/protocol/eventstream v1.6.3 // indirect
	github.com/aws/aws-sdk-go-v2/config v1.27.27 // indirect
	github.com/aws/aws-sdk-go-v2/credentials v1.17.27 // indirect
	github.com/aws/aws-sdk-go-v2/feature/ec2/imds v1.16.11 // indirect
	github.com/aws/aws-sdk-go-v2/feature/s3/manager v1.17.10 // indirect
	github.com/aws/aws-sdk-go-v2/internal/configsources v1.3.15 // indirect
	github.com/aws/aws-sdk-go-v2/internal/endpoints/v2 v2.6.15 // indirect
	github.com/aws/aws-sdk-go-v2/internal/ini v1.8.0 // indirect
	github.com/aws/aws-sdk-go-v2/internal/v4a v1.3.15 // indirect
	github.com/aws/aws-sdk-go-v2/service/internal/accept-encoding v1.11.3 // indirect
	github.com/aws/aws-sdk-go-v2/service/internal/checksum v1.3.17 // indirect
	github.com/aws/aws-sdk-go-v2/service/internal/presigned-url v1.11.17 // indirect
	github.com/aws/aws-sdk-go-v2/service/internal/s3shared v1.17.15 // indirect
	github.com/aws/aws-sdk-go-v2/service/s3 v1.58.3 // indirect
	github.com/aws/aws-sdk-go-v2/service/sso v1.22.4 // indirect
	github.com/aws/aws-sdk-go-v2/service/ssooidc v1.26.4 // indirect
	github.com/aws/aws-sdk-go-v2/service/sts v1.30.3 // indirect
	github.com/aws/smithy-go v1.20.3 // indirect
	github.com/aymanbagabas/go-osc52/v2 v2.0.1 // indirect
	github.com/aymerick/douceur v0.2.0 // indirect
	github.com/bahlo/generic-list-go v0.2.0 // indirect
	github.com/beorn7/perks v1.0.1 // indirect
	github.com/bodgit/plumbing v1.3.0 // indirect
	github.com/bodgit/sevenzip v1.4.3 // indirect
	github.com/bodgit/windows v1.0.1 // indirect
	github.com/bradenaw/juniper v0.15.2 // indirect
	github.com/bradfitz/iter v0.0.0-20191230175014-e8f45d346db8 // indirect
	github.com/buengese/sgzip v0.1.1 // indirect
	github.com/buger/jsonparser v1.1.1 // indirect
	github.com/calebcase/tmpfile v1.0.3 // indirect
	github.com/catppuccin/go v0.2.0 // indirect
	github.com/cespare/xxhash/v2 v2.2.0 // indirect
	github.com/charmbracelet/bubbles v0.17.1 // indirect
	github.com/charmbracelet/bubbletea v0.25.0 // indirect
	github.com/charmbracelet/glamour v0.6.0 // indirect
	github.com/chilts/sid v0.0.0-20190607042430-660e94789ec9 // indirect
	github.com/cloudflare/circl v1.3.7 // indirect
	github.com/cloudsoda/go-smb2 v0.0.0-20231124195312-f3ec8ae2c891 // indirect
	github.com/colinmarc/hdfs/v2 v2.4.0 // indirect
	github.com/containerd/console v1.0.4-0.20230313162750-1ae8d489ac81 // indirect
	github.com/coreos/go-semver v0.3.1 // indirect
	github.com/coreos/go-systemd/v22 v22.5.0 // indirect
	github.com/cpuguy83/go-md2man/v2 v2.0.4 // indirect
	github.com/cronokirby/saferith v0.33.0 // indirect
	github.com/cyphar/filepath-securejoin v0.2.4 // indirect
	github.com/davecgh/go-spew v1.1.2-0.20180830191138-d8f796af33cc // indirect
	github.com/dlclark/regexp2 v1.10.0 // indirect
	github.com/dropbox/dropbox-sdk-go-unofficial/v6 v6.0.5 // indirect
	github.com/emersion/go-message v0.18.0 // indirect
	github.com/emersion/go-textwrapper v0.0.0-20200911093747-65d896831594 // indirect
	github.com/emersion/go-vcard v0.0.0-20230815062825-8fda7d206ec9 // indirect
	github.com/emirpasic/gods v1.18.1 // indirect
	github.com/felixge/httpsnoop v1.0.4 // indirect
	github.com/flynn/noise v1.0.1 // indirect
	github.com/fsnotify/fsnotify v1.7.0 // indirect
	github.com/gabriel-vasile/mimetype v1.4.4 // indirect
	github.com/geoffgarside/ber v1.1.0 // indirect
	github.com/go-chi/chi/v5 v5.1.0 // indirect
	github.com/go-darwin/apfs v0.0.0-20211011131704-f84b94dbf348 // indirect
	github.com/go-git/gcfg v1.5.1-0.20230307220236-3a3c6141e376 // indirect
	github.com/go-git/go-billy/v5 v5.5.0 // indirect
	github.com/go-logfmt/logfmt v0.6.0 // indirect
	github.com/go-logr/logr v1.4.1 // indirect
	github.com/go-logr/stdr v1.2.2 // indirect
	github.com/go-ole/go-ole v1.3.0 // indirect
	github.com/go-resty/resty/v2 v2.11.0 // indirect
	github.com/gofrs/flock v0.8.1 // indirect
	github.com/gogo/protobuf v1.3.2 // indirect
	github.com/golang-jwt/jwt/v4 v4.5.1 // indirect
	github.com/golang-jwt/jwt/v5 v5.2.1 // indirect
	github.com/golang/groupcache v0.0.0-20210331224755-41bb18bfe9da // indirect
	github.com/golang/protobuf v1.5.4 // indirect
	github.com/golang/snappy v0.0.4 // indirect
	github.com/google/s2a-go v0.1.7 // indirect
	github.com/googleapis/enterprise-certificate-proxy v0.3.2 // indirect
	github.com/googleapis/gax-go/v2 v2.12.5 // indirect
	github.com/gorilla/css v1.0.0 // indirect
	github.com/gosimple/unidecode v1.0.1 // indirect
	github.com/hashicorp/errwrap v1.1.0 // indirect
	github.com/hashicorp/go-cleanhttp v0.5.2 // indirect
	github.com/hashicorp/go-multierror v1.1.1 // indirect
	github.com/hashicorp/go-retryablehttp v0.7.7 // indirect
	github.com/hashicorp/go-uuid v1.0.3 // indirect
	github.com/hashicorp/hcl v1.0.0 // indirect
	github.com/henrybear327/Proton-API-Bridge v1.0.0 // indirect
	github.com/henrybear327/go-proton-api v1.0.0 // indirect
	github.com/inconshreveable/mousetrap v1.1.0 // indirect
	github.com/jbenet/go-context v0.0.0-20150711004518-d14ea06fba99 // indirect
	github.com/jcmturner/aescts/v2 v2.0.0 // indirect
	github.com/jcmturner/dnsutils/v2 v2.0.0 // indirect
	github.com/jcmturner/gofork v1.7.6 // indirect
	github.com/jcmturner/goidentity/v6 v6.0.1 // indirect
	github.com/jcmturner/gokrb5/v8 v8.4.4 // indirect
	github.com/jcmturner/rpc/v2 v2.0.3 // indirect
	github.com/jlaffaye/ftp v0.2.0 // indirect
	github.com/jszwec/csvutil v1.8.0 // indirect
	github.com/jtolio/noiseconn v0.0.0-20231127013910-f6d9ecbf1de7 // indirect
	github.com/jzelinskie/whirlpool v0.0.0-20201016144138-0675e54bb004 // indirect
	github.com/kevinburke/ssh_config v1.2.0 // indirect
	github.com/klauspost/cpuid/v2 v2.2.8 // indirect
	github.com/koofr/go-httpclient v0.0.0-20240520111329-e20f8f203988 // indirect
	github.com/koofr/go-koofrclient v0.0.0-20221207135200-cbd7fc9ad6a6 // indirect
	github.com/kr/fs v0.1.0 // indirect
	github.com/kylelemons/godebug v1.1.0 // indirect
	github.com/lpar/date v1.0.0 // indirect
	github.com/lufia/plan9stats v0.0.0-20231016141302-07b5767bb0ed // indirect
	github.com/magiconair/properties v1.8.7 // indirect
	github.com/mailru/easyjson v0.7.7 // indirect
	github.com/mattn/go-colorable v0.1.13 // indirect
	github.com/mattn/go-isatty v0.0.20 // indirect
	github.com/mattn/go-localereader v0.0.1 // indirect
	github.com/mattn/go-runewidth v0.0.15 // indirect
	github.com/microcosm-cc/bluemonday v1.0.25 // indirect
	github.com/mitchellh/mapstructure v1.5.0 // indirect
	github.com/muesli/ansi v0.0.0-20230316100256-276c6243b2f6 // indirect
	github.com/muesli/cancelreader v0.2.2 // indirect
	github.com/muesli/mango v0.1.0 // indirect
	github.com/muesli/mango-pflag v0.1.0 // indirect
	github.com/muesli/reflow v0.3.0 // indirect
	github.com/muesli/termenv v0.15.2 // indirect
	github.com/ncw/swift/v2 v2.0.3 // indirect
	github.com/nwaples/rardecode/v2 v2.0.0-beta.2 // indirect
	github.com/nxadm/tail v1.4.11 // indirect
	github.com/olekukonko/tablewriter v0.0.5 // indirect
	github.com/oracle/oci-go-sdk/v65 v65.69.2 // indirect
	github.com/panjf2000/ants/v2 v2.9.1 // indirect
	github.com/patrickmn/go-cache v2.1.0+incompatible // indirect
	github.com/pelletier/go-toml/v2 v2.2.2 // indirect
	github.com/pengsrc/go-shared v0.2.1-0.20190131101655-1999055a4a14 // indirect
	github.com/pierrec/lz4/v4 v4.1.18 // indirect
	github.com/pjbgf/sha1cd v0.3.0 // indirect
	github.com/pkg/browser v0.0.0-20240102092130-5ac0b6a4141c // indirect
	github.com/pkg/errors v0.9.1 // indirect
	github.com/pkg/sftp v1.13.6 // indirect
	github.com/pkg/xattr v0.4.9 // indirect
	github.com/pmezard/go-difflib v1.0.1-0.20181226105442-5d4384ee4fb2 // indirect
	github.com/power-devops/perfstat v0.0.0-20221212215047-62379fc7944b // indirect
	github.com/prometheus/client_golang v1.19.1 // indirect
	github.com/prometheus/client_model v0.5.0 // indirect
	github.com/prometheus/common v0.48.0 // indirect
	github.com/prometheus/procfs v0.12.0 // indirect
	github.com/putdotio/go-putio/putio v0.0.0-20200123120452-16d982cac2b8 // indirect
	github.com/relvacode/iso8601 v1.3.0 // indirect
	github.com/rfjakob/eme v1.1.2 // indirect
	github.com/rivo/uniseg v0.4.7 // indirect
	github.com/russross/blackfriday/v2 v2.1.0 // indirect
	github.com/sabhiram/go-gitignore v0.0.0-20210923224102-525f6e181f06 // indirect
	github.com/sagikazarmark/locafero v0.4.0 // indirect
	github.com/sagikazarmark/slog-shim v0.1.0 // indirect
	github.com/samber/lo v1.47.0 // indirect
	github.com/sergi/go-diff v1.3.1 // indirect
	github.com/shirou/gopsutil/v3 v3.24.5 // indirect
	github.com/shoenig/go-m1cpu v0.1.6 // indirect
	github.com/sirupsen/logrus v1.9.3 // indirect
	github.com/skeema/knownhosts v1.2.1 // indirect
	github.com/skratchdot/open-golang v0.0.0-20200116055534-eef842397966 // indirect
	github.com/smartystreets/goconvey v1.8.1 // indirect
	github.com/sony/gobreaker v0.5.0 // indirect
	github.com/spacemonkeygo/monkit/v3 v3.0.22 // indirect
	github.com/spf13/afero v1.11.0 // indirect
	github.com/spf13/cast v1.6.0 // indirect
	github.com/subosito/gotenv v1.6.0 // indirect
	github.com/t3rm1n4l/go-mega v0.0.0-20240219080617-d494b6a8ace7 // indirect
	github.com/therootcompany/xz v1.0.1 // indirect
	github.com/tklauser/go-sysconf v0.3.13 // indirect
	github.com/tklauser/numcpus v0.7.0 // indirect
	github.com/ulikunitz/xz v0.5.11 // indirect
	github.com/unknwon/goconfig v1.0.0 // indirect
	github.com/wk8/go-ordered-map/v2 v2.1.8 // indirect
	github.com/xanzy/ssh-agent v0.3.3 // indirect
	github.com/youmark/pkcs8 v0.0.0-20201027041543-1326539a0a0a // indirect
	github.com/yuin/goldmark v1.6.0 // indirect
	github.com/yuin/goldmark-emoji v1.0.2 // indirect
	github.com/yunify/qingstor-sdk-go/v3 v3.2.0 // indirect
	github.com/yusufpapurcu/wmi v1.2.4 // indirect
	github.com/zeebo/blake3 v0.2.3 // indirect
	github.com/zeebo/errs v1.3.0 // indirect
	go.opencensus.io v0.24.0 // indirect
	go.opentelemetry.io/contrib/instrumentation/net/http/otelhttp v0.49.0 // indirect
	go.opentelemetry.io/otel v1.24.0 // indirect
	go.opentelemetry.io/otel/metric v1.24.0 // indirect
	go.opentelemetry.io/otel/trace v1.24.0 // indirect
	go.uber.org/multierr v1.11.0 // indirect
	go4.org v0.0.0-20230225012048-214862532bf5 // indirect
	golang.org/x/crypto v0.25.0 // indirect
	golang.org/x/exp v0.0.0-20240719175910-8a7402abbf56 // indirect
	golang.org/x/mod v0.19.0 // indirect
	golang.org/x/net v0.27.0 // indirect
	golang.org/x/oauth2 v0.21.0 // indirect
	golang.org/x/sync v0.8.0 // indirect
	golang.org/x/sys v0.22.0 // indirect
	golang.org/x/term v0.22.0 // indirect
	golang.org/x/text v0.17.0 // indirect
	golang.org/x/time v0.5.0 // indirect
	google.golang.org/api v0.188.0 // indirect
	google.golang.org/genproto/googleapis/rpc v0.0.0-20240708141625-4ad9e859172b // indirect
	google.golang.org/grpc v1.64.1 // indirect
	google.golang.org/protobuf v1.34.2 // indirect
	gopkg.in/ini.v1 v1.67.0 // indirect
	gopkg.in/validator.v2 v2.0.1 // indirect
	gopkg.in/warnings.v0 v0.1.2 // indirect
	gopkg.in/yaml.v2 v2.4.0 // indirect
	moul.io/http2curl/v2 v2.3.0 // indirect
	storj.io/common v0.0.0-20240812101423-26b53789c348 // indirect
	storj.io/drpc v0.0.35-0.20240709171858-0075ac871661 // indirect
	storj.io/eventkit v0.0.0-20240415002644-1d9596fee086 // indirect
	storj.io/infectious v0.0.2 // indirect
	storj.io/picobuf v0.0.3 // indirect
	storj.io/uplink v1.13.1 // indirect
)
